MSDS 7333 Fall 2020: Case Study 3
…
Utilizing Random Forest, the model accuracy has increased to 97%. The model successfully classified 1321 non-spam emails as spam and 443 spam emails as spam. Indications seems to indicate that this model is better than the initial tree based models that were built. To a degree this is expected since a random forest classifier is building multiple trees versus the single trees in the initial outset.

Grid Search

Another approach that could be used to build a tree is the grid search method to aid us with hyper-parameter tuning. In the code below, we specify a range of hyper-paramter settings (in this case minsplit and maxdepth) and then iterate through them to see which displays the best model. Hyper-parameter tuning is useful because it helps us quickly identify the likely best parameters to use in construction of our decision tree. In future iterations to speed up analysis, other grid search methods can be used. We tried Ranger which significantly sped up processing time, but did not improve the results - so it was not included in our analysis.

After our grid search is done, we define an accuracy calculation and apply it against our training data set to see how well each parameter combination performed. We can see that the optimal model chosen by grid search is a minsplit of 30 with a max depth of 8. However, we can also see that a minsplit of 2 and a max depth of 13 also performs equally well when evaluating the accuracy metric. Therefore, to avoid overfitting with a deep tree, we will select minsplit of 2 and a maxdepth of 13 for our optimal grid search tree.

## # A tibble: 377 x 4
##    minsplit maxdepth fit     test_accuracy
##       <dbl>    <dbl> <list>          <dbl>
##  1       30        8 <rpart>         0.920
##  2       30        9 <rpart>         0.920
##  3       30       10 <rpart>         0.920
##  4       30       11 <rpart>         0.920
##  5       30       12 <rpart>         0.920
##  6       30       13 <rpart>         0.920
##  7       29        8 <rpart>         0.920
##  8       29        9 <rpart>         0.920
##  9       29       10 <rpart>         0.920
## 10       29       11 <rpart>         0.920
## # ... with 367 more rows
…
